92.096
52.928
49.728
49.984
49.152
47.168
47.936
46.784
48.704
47.424
48
47.616
46.976
46.912
48.896
57.472
47.936
47.168
46.464
46.336
46.208
46.464
46.72
46.464
46.464
46.528
46.656
46.272
46.272
46.272
50.816
56.256
47.232
46.528
46.336
46.4
46.464
46.208
46.4
46.336
46.4
46.336
46.4
46.528
46.144
50.624
61.504
54.528
51.904
47.232
49.536
49.536
47.36
46.336
46.208
49.088
49.28
48.448
47.296
49.088
50.304
56.768
47.488
48
48
49.408
48.768
49.664
47.232
48.96
47.424
46.912
46.528
48.96
47.36
49.408
57.6
50.56
49.792
48.896
48.832
47.232
48.96
48.64
48.64
48.768
49.196
48.9
48.79
48.836
50.333
59.277
47.781
50.507
48.576
46.878
46.372
46.662
49.41
49.278
46.88
48.884
49.248
48.756
47.944
48.34
55.62
48.248
49.18
47.984
48.888
47.26
49.052
47.804
47.236
46.532
46.552
47.968
46.812
47.688
47.52
54.568
47.416
49.392
47.152
46.592
49.304
46.888
49.472
46.888
49.104
46.96
46.592
48.992
49.192
48.448
54.08
47.144
48.768
48.744
47.808
46.968
47.896
46.688
48.632
46.824
46.856
48.432
48.808
48.752
46.936
52.184
51.224
49.168
49.232
48
46.832
47.904
48.72
49.36
49.2
48.128
48.976
47.968
48.976
47.152
47.12
55.264
49.68
47.92
48.752
48.944
48.832
49.216
47.408
48.704
47.36
49.104
48.592
47.968
47.616
48.384
54.08
49.104
49.168
47.52
48.912
48.096
49.184
47.408
46.56
48.032
48.8
48.432
47.536
48.944
48.096
52.864
47.136
48.432
48.272
49.568
47.824
46.8
46.464
49.104
48.928
48.784
49.168
49.088
48.832
47.344
54.048
49.152
47.968
48.608
47.408
46.992
48.848
47.424
49.232
47.264
46.592
46.304
48.48
48.896
47.68
55.2
49.472
49.344
47.392
48.928
47.424
48.512
49.024
49.024
47.584
47.328
49.12
48.544
48.768
48.064
53.504
50.048
47.904
49.216
47.424
49.056
47.328
49.152
48.992
49.536
49.344
49.12
49.024
46.976
47.904
54.24
49.408
48.96
48.8
48.864
47.008
48.608
47.008
48.8
48.736
46.88
46.496
46.432
46.464
48.992
54.24
49.28
47.872
47.616
48.896
48.8
46.88
48.8
46.976
46.656
48.736
49.088
46.912
48.608
49.312
52.64
49.44
46.976
48.928
46.88
48.736
47.008
49.024
46.848
46.528
48.832
48.16
46.848
48.768
46.752
51.072
52.64
46.944
49.12
49.376
46.688
47.904
46.72
46.368
48.768
47.936
48.896
48.64
48.672
47.808
48.224
53.536
48.736
48.8
48.16
48.704
47.904
47.712
46.816
46.432
48.864
48.928
47.808
46.88
47.68
48.864
53.984
48.832
46.688
46.752
46.496
46.688
47.776
48.896
46.912
46.368
48.096
46.784
48.672
47.104
46.784
52.224
49.568
49.056
48.704
48.96
48.928
47.072
48
46.912
47.808
46.912
46.464
46.4
48.256
49.024
52.48
48
49.216
48.896
48.896
48.64
48.768
48.896
48.64
48.576
47.04
48.896
46.848
46.592
47.04
53.76
48
48.96
47.168
48.064
47.744
46.656
47.744
46.976
46.72
48.64
48.96
46.976
46.464
49.088
52.288
46.848
49.344
49.088
49.024
49.024
47.04
47.36
49.024
48.832
46.912
48.96
48.128
47.808
48.192
52.864
49.408
47.744
46.848
48.64
49.088
47.104
46.464
46.592
46.4
46.336
46.4
47.936
48.704
47.168
53.568
48.832
49.152
48.96
48
48.896
49.088
49.024
48.704
48.704
47.936
48.768
48
47.808
49.024
54.144
47.168
46.784
49.152
47.04
48.832
52.992
52.608
49.856
49.344
49.024
49.088
48.96
47.232
46.72
55.104
49.152
48.448
49.152
49.024
48.896
48.384
48.832
47.36
49.088
49.024
46.976
46.848
48.64
48.192
53.312
47.552
49.024
49.536
49.856
49.28
48.384
48.896
48
47.104
46.464
49.088
46.976
48.768
49.216
54.144
49.92
50.496
53.696
50.432
48
49.152
47.232
48.448
49.152
49.344
48.96
47.936
46.912
47.872
50.048
52.48
46.912
46.4
49.216
48.96
48.704
49.216
48.192
49.088
46.976
48.96
46.784
46.592
48.96
49.28
51.968
49.28
49.216
48.896
49.088
47.872
48.896
48.896
46.912
48.832
48.96
47.04
47.68
46.848
47.808
54.272
47.36
48.832
47.872
48.896
47.616
46.784
48.64
47.808
46.848
46.848
48.768
47.616
48.768
47.616
53.568
49.28
47.232
46.464
48.896
46.72
46.4
48.96
48.512
46.848
46.272
48.896
46.784
47.936
48.064
52.224
47.936
49.024
47.04
46.464
46.528
48.96
49.28
46.72
47.04
46.656
46.464
46.528
46.464
46.592
52.928
46.912
47.232
46.464
46.4
46.208
46.272
46.656
46.528
46.4
46.272
46.528
46.455
46.329
46.883
52.839
46.442
46.857
46.722
46.667
46.467
46.19
46.66
46.464
46.408
46.268
46.47
46.41
46.212
47.04
52.944
46.528
46.76
46.424
46.344
46.292
46.308
46.388
46.34
46.636
46.416
46.332
46.288
46.236
46.232
50.236
51.384
46.328
46.416
46.656
46.528
46.32
46.2
46.4
46.032
46.12
46.072
45.96
46.2
46.488
47.152
52.192
46.432
46.112
46.136
46.392
46.144
46.032
49.696
49.296
47.064
46.536
46.56
46.312
46.464
46.92
53.856
46.856
46.56
46.512
46.32
46.288
46.176
46.544
46.24
46.224
46.304
46.144
46.24
46.448
46.48
52.704
46.704
46.576
46.656
46.464
46.528
46.432
46.448
46.4
46.512
46.16
46.368
46.496
46.24
46.768
52.272
46.48
46.832
46.832
46.272
46.16
46.368
46.144
46.384
46.192
46.464
46.464
46.384
46.432
46.704
53.024
46.672
46.8
46.704
46.432
46.496
46.352
46.512
46.544
46.544
46.16
46.352
46.512
46.56
47.152
52.016
46.992
46.64
46.56
46.064
46.288
46.688
46.352
46.352
46.512
46.24
46.272
46.592
46.368
46.88
52.512
46.784
46.432
46.272
46.016
46.4
46.56
46.4
46.176
46.368
46.048
46.144
46.208
46.208
50.24
54.464
49.568
49.056
47.008
48.864
47.04
48.608
46.944
46.624
46.144
46.304
46.176
48.704
48.672
46.944
52.064
49.088
46.784
46.464
46.432
48.832
48.832
48.128
46.944
48.96
49.376
50.016
48.064
49.824
50.048
54.24
50.912
50.176
50.048
49.696
49.92
49.472
49.056
49.056
51.776
49.536
49.024
49.312
47.296
47.424
54.08
49.216
49.248
48.992
48.992
48.928
48.768
47.008
46.624
46.56
47.904
48.928
49.024
48.8
48.736
53.664
48.544
49.216
47.936
47.712
48.032
46.976
46.848
48.8
48.864
47.264
48.864
49.12
47.936
48.8
68.32
61.536
56.064
54.688
53.92
53.568
52.96
52.864
53.12
52.96
52.032
52.832
53.088
52.192
51.552
56.32
63.168
57.696
59.328
59.232
58.144
58.72
57.28
58.016
57.28
56.736
57.056
59.04
57.376
58.688
56.256
61.792
56.864
58.208
58.208
57.984
57.952
58.24
56.864
56.608
55.616
56.704
56.768
55.936
56.64
55.552
62.208
57.792
56.64
56.96
57.408
57.856
56.896
57.28
58.624
56.192
56.576
57.28
56.256
56.32
55.04
62.656
58.112
56.128
57.472
58.24
56.64
55.168
53.952
52.352
53.312
62.72
58.688
55.04
52.736
51.008
59.136
54.464
53.376
54.016
52.864
49.92
47.552
47.04
46.528
50.56
49.472
53.696
47.872
53.44
54.016
68.8
61.376
59.392
59.008
58.816
58.432
57.536
56.256
57.024
58.048
56.768
56.256
57.152
56.384
53.952
58.56
59.712
58.304
57.28
58.368
57.856
57.088
57.28
57.664
57.28
56.704
56.448
55.488
55.936
57.408
57.408
61.76
58.624
56.896
57.472
56.832
58.112
57.088
55.744
56.448
55.936
57.408
56.128
55.168
57.024
57.216
60.544
57.984
56.448
56.64
56.64
55.552
57.28
55.744
55.808
57.344
57.152
57.536
66.432
67.008
53.824
61.056
52.672
53.952
52.992
51.712
51.84
51.328
51.2
51.328
50.496
50.432
50.432
50.688
49.984
50.176
59.008
50.368
54.4
54.976
54.592
54.4
53.568
54.016
53.568
52.736
53.44
53.76
52.992
52.864
54.912
59.84
54.08
54.272
53.824
54.208
53.696
51.328
51.008
51.2
50.304
50.432
51.52
51.328
49.92
49.6
54.208
53.824
50.752
50.944
51.712
51.904
50.56
50.176
50.56
50.496
50.88
50.176
49.984
50.496
50.496
49.92
58.496
51.392
53.824
49.664
50.048
51.072
49.728
49.536
47.232
47.104
46.592
46.784
46.4
46.592
46.912
52.992
48
47.488
47.488
47.296
48.256
48.704
48.896
50.496
49.216
49.152
48.896
48.704
48.704
49.088
53.312
48.832
48.448
48.384
48.576
49.216
48.704
48.512
48.448
48.896
47.936
48.32
48.512
48.32
48.896
63.232
52.48
48.576
65.344
57.536
54.72
52.608
54.272
53.888
52.928
52.224
53.248
55.104
53.87
53.378
58.449
53.671
53.01
52.507
53.164
52.055
51.833
52.48
53.576
52.788
53.068
53.58
52.278
52.764
52.282
58.292
52.656
52.904
52.004
51.4
52.816
54.24
52.272
52.324
51.808
51.288
52.784
53.208
52.036
51.564
53.148
55.616
51.736
52.72
52.504
51.296
51.064
51.136
52.144
52.832
51.096
52.2
51.704
51.248
51.904
53.44
58.032
52.688
54.16
52.2
52.76
52.192
51.784
51.8
52.584
51.456
53.12
52.184
52.104
52.176
51.888
60.168
52.304
54.632
52.816
52.592
52.768
51.872
52.736
52.192
51.584
52.672
52.176
52.128
52.24
51.28
58.32
53.616
52.944
51.92
52.88
51.664
52.704
53.424
51.52
51.616
52.064
51.424
53.168
52.128
52.976
58.72
51.072
53.136
51.936
51.6
52.272
52.176
51.376
52.56
51.168
51.904
50.928
52.496
52.608
52.64
58.208
52.336
52.032
52.352
57.264
51.568
51.376
49.84
49.392
49.344
49.408
49.168
48.416
49.584
49.248
52.4
54.944
48.176
47.712
47.552
47.424
49.36
47.072
47.216
48.912
49.2
48.8
46.976
48.832
46.848
48.896
57.088
51.424
50.368
52.48
48
47.36
49.536
49.536
49.44
47.232
46.88
46.816
46.624
48.896
47.424
54.432
50.432
50.176
61.92
55.744
54.912
52.96
51.84
52.544
51.264
51.424
52.544
52.064
51.456
52.16
58.432
52.224
52.352
51.52
51.648
50.848
52.896
52.768
52.544
53.28
52.608
52.544
52.064
50.848
52.288
57.76
52.64
51.584
52.256
52.192
52.032
52.352
52.32
50.72
50.944
50.944
52.416
50.624
52.16
52.32
58.208
52.096
53.728
52.672
52.32
51.008
52.288
51.872
52.256
52.256
51.2
52.032
52.768
51.264
51.84
57.952
52
51.36
52.256
50.752
51.84
51.744
51.584
50.368
51.648
52.192
52.32
52.96
52.032
51.488
56.672
52.32
52.192
51.68
52.576
51.744
51.904
50.976
51.904
52.288
50.976
51.808
52.032
50.528
51.968
57.728
52.384
52
51.04
51.04
51.936
52.16
51.328
51.2
51.936
51.936
53.248
51.616
51.616
51.776
57.312
52.128
52.768
51.648
50.56
52.896
51.744
52.544
51.392
50.656
52.672
51.136
51.392
52.416
52.096
57.856
50.752
52.928
50.944
51.52
52.8
53.248
54.144
52.608
51.84
51.456
52.288
51.136
52.032
54.976
57.984
52.48
52.16
52.224
51.968
51.136
53.312
52.032
52.224
51.84
52.864
52.416
52.16
51.712
51.648
58.176
52.16
51.968
51.456
51.008
50.944
51.2
51.264
52.544
54.656
51.776
53.76
51.776
51.968
51.904
58.944
51.2
51.264
50.816
52.992
52.672
51.52
51.264
52.736
52.032
52.224
51.584
51.776
51.648
51.136
58.56
52.608
53.056
52.48
52.288
51.2
51.648
50.496
52.032
52.288
50.816
52.16
52.608
51.328
52.608
58.368
53.12
51.52
52.864
52.096
51.072
52.224
50.88
52.16
52.16
51.776
52.16
51.904
51.84
52.416
58.496
51.072
53.376
52.096
52.48
52.096
52.48
51.072
53.632
52.096
51.264
53.824
52.16
51.008
51.84
57.984
51.904
50.56
54.016
53.76
52.096
52.992
51.712
52.16
55.616
53.376
51.904
52.288
51.264
52.544
58.24
50.688
53.312
51.072
51.84
50.88
53.76
50.944
53.824
52.8
52.032
52.416
51.52
52.928
52.288
58.624
52.736
50.816
52.48
52.032
52.032
51.136
53.376
52.224
51.904
52.224
52.736
52.032
52.224
52.288
58.048
51.584
51.904
53.184
53.504
53.568
50.88
52.16
52.864
51.52
51.456
50.56
53.632
51.584
50.944
59.648
51.264
52.736
52.032
50.56
52.288
52.288
50.88
52.736
54.208
51.712
53.12
50.752
52.992
50.112
58.304
52.608
52.8
51.968
53.76
51.84
52.352
52.608
50.688
51.648
53.312
51.072
51.072
51.072
53.184
58.432
52.992
52.16
51.904
53.824
51.2
50.88
52.992
52.672
52.672
52.48
51.84
51.584
51.904
50.688
56.576
54.784
52.544
52.096
54.016
51.2
52.288
51.712
52.864
52.8
51.904
52.416
52.672
51.072
52.736
52.736
56.542
52.882
51.528
52.361
51.047
51.78
52.235
51.061
52.705
51.292
52.38
51.356
51.102
53.824
51.628
59.14
51.47
52.716
52.468
52.716
50.536
52.42
50.38
51.908
52.256
53.228
52.488
53.072
51.732
50.836
57.424
50.888
52.596
52.02
51.672
52.08
50.584
52.384
52.104
52.056
52.656
51.456
51.904
51.624
51.256
58.064
52.704
50.768
52.456
51.936
51.144
53.48
50.2
52.456
50.672
52.496
52.064
53.568
51.472
52.288
58.336
51.32
52.456
51.472
51.896
51.768
50.536
50.672
50.864
51.44
50.688
50.736
52.896
50.496
50.912
58.256
52.624
52.24
52.112
51.472
52.496
52.128
51.952
51.12
51.12
53.072
51.52
52.112
61.12
51.536
58.352
53.552
52.544
52.576
51.712
52.144
50.576
52.784
52.208
50.496
51.36
52.128
51.056
52.976
51.072
58.608
52.08
52.096
50.944
53.104
53.008
52.224
51.952
51.984
51.04
51.76
51.664
51.744
52.4
51.056
58.08
51.424
50.72
50.912
52.032
51.584
51.824
50.704
52.608
51.008
53.76
51.792
51.616
50.608
52.368
59.456
52.416
52.992
52.576
52.032
51.744
51.168
53.12
52.48
50.848
52.48
51.904
51.84
52.704
49.568
55.456
53.088
52.448
52.096
51.712
51.584
51.68
51.296
51.488
53.024
52.288
52.416
50.528
51.648
53.6
51.52
58.88
52.128
51.168
53.312
51.872
53.248
51.68
51.264
52.704
51.744
52.16
53.856
52.128
51.296
52.832
57.344
52.864
51.872
52.128
52.32
50.496
51.264
52.448
54.336
52.192
52.128
52.224
52.352
53.344
52.32
59.168
52.064
52.928
51.936
50.816
51.776
52.416
52.672
51.744
51.072
50.784
53.824
51.68
50.88
52.864
58.752
54.048
50.752
51.264
54.112
52.256
51.936
51.36
52.928
53.056
50.72
52.672
50.848
51.296
52.64
58.176
53.28
52.224
50.88
53.344
50.848
52.32
52.256
52.896
51.808
51.232
52.16
51.648
51.488
52.672
57.984
52
52.864
52.256
52.192
51.776
51.008
51.968
52.256
51.104
51.232
53.504
51.424
51.616
50.624
58.72
51.104
52.8
52.352
53.152
50.464
52.8
53.024
51.552
51.872
50.784
51.808
51.616
51.84
53.248
57.408
54.464
52.928
51.072
51.968
52.032
50.304
51.712
51.008
53.312
51.456
51.968
50.752
52.736
51.456
58.496
51.328
54.336
52.608
53.312
52.608
53.312
51.776
51.392
51.584
53.568
50.624
54.016
53.504
51.904
58.624
52.16
52.288
53.312
52.288
51.968
52.16
51.84
52.16
51.328
54.592
50.816
52.352
61.952
55.36
55.104
54.208
49.6
48.704
48.192
48.064
46.784
46.976
46.912
46.4
46.528
46.72
46.336
46.464
48.384
52.544
47.808
47.296
47.04
46.976
47.488
46.848
46.464
46.528
46.656
46.656
46.336
46.4
46.4
46.976
54.72
50.816
49.92
52.544
49.92
50.368
46.976
49.856
47.424
49.28
47.04
48.448
46.784
48.96
48.384
55.616
49.92
49.472
52.672
50.112
49.024
52.288
48.32
46.976
46.528
49.472
49.408
49.408
48.896
48.064
53.888
49.472
49.472
53.504
51.968
47.04
50.176
48.448
46.848
46.784
48.384
48.128
46.976
46.592
51.2
49.472
50.752
46.528
50.624
46.976
50.752
47.36
46.848
49.344
49.344
49.344
48.256
47.744
49.152
46.784
49.856
52.928
49.408
49.344
49.216
48.448
46.976
48.96
48.96
46.912
48.896
49.024
46.912
47.808
46.976
47.616
51.776
46.848
48
49.216
46.784
46.656
47.808
48
49.088
46.976
48.832
49.088
48.896
48.064
47.104
54.272
47.488
47.872
47.616
49.024
47.04
48.064
47.936
47.168
47.872
46.528
49.152
49.152
48.896
47.296
52.672
49.216
48.192
49.152
46.976
49.664
48.064
49.28
49.024
46.72
46.464
48.064
46.528
48.768
47.296
54.144
47.36
47.232
48.064
49.28
49.152
48.896
46.784
49.216
54.592
51.968
49.408
48.192
46.912
49.024
54.144
49.6
49.088
52.288
50.24
49.984
49.28
47.36
51.648
49.728
47.04
49.6
47.104
49.28
47.296
52.48
51.584
48.064
50.07
53.281
49.913
47.189
46.894
46.699
48.371
49.153
49.155
47.072
46.884
46.618
47.104
56.61
50.218
50.256
49.708
52.676
47.228
49.428
49.256
48.852
48.904
48.728
48.94
48.976
47.22
50.172
52.716
50.2
49.128
49.008
52.272
48.564
49.032
48.064
48.936
48.936
48.944
46.84
47.92
46.848
48.648
54.312
48.128
49.896
50.688
48.096
49.552
49.272
49.24
48.944
46.992
48.632
46.944
46.52
46.616
49.112
55.576
50.424
49.928
49.648
50.544
47.232
48.032
48.848
49.032
47.04
46.576
49.2
48.912
47.04
49.152
53.136
49.856
49.2
49.36
51.648
49.04
61.968
58.112
55.792
53.888
52.992
52.752
52.784
53.472
52.48
58.768
53.376
53.2
54.016
52.224
52.704
51.872
51.872
51.872
51.648
53.504
52.144
52.32
53.248
52.32
56.464
51.76
51.776
52.048
50.608
52.464
52.96
52.176
52.928
51.776
50.656
51.856
51.84
58.208
55.376
55.456
51.36
50.512
50.752
50.352
49.376
51.888
48.56
49.216
49.488
47.488
49.184
48.032
48.96
49.392
52.768
49.024
52.256
48.48
49.376
49.216
48.672
48.928
48.736
51.776
47.296
49.248
48.384
49.024
48.416
54.24
50.304
48.224
48.736
48
47.808
47.072
49.728
49.28
47.168
48.096
49.056
49.248
48.896
49.344
53.824
52.96
50.112
48.896
48.672
48.768
51.296
49.728
49.12
47.168
48.96
48.352
46.848
48.288
61.056
60.672
56.064
52.384
52.736
51.488
51.68
51.424
54.816
53.632
53.216
52.32
53.408
51.04
52.128
51.2
58.4
52.448
50.528
52.544
53.376
51.136
50.272
52.192
52.288
52.384
51.616
52
52.352
52.512
52.256
58.24
52.32
50.528
51.808
50.496
52.128
50.4
50.496
51.52
51.584
52.544
50.336
50.464
51.232
51.84
56.928
52.448
52.448
51.84
51.072
52.928
50.464
50.688
52.736
50.144
53.216
50.656
52.192
51.552
50.624
57.536
52.192
52.512
52.096
51.104
52.16
51.84
53.248
50.368
52.288
51.232
52.192
51.712
52.352
52.224
56.896
51.552
51.712
51.712
51.808
50.304
51.968
51.712
52.096
50.528
51.648
51.424
50.688
51.808
51.968
57.856
52.096
50.752
52.352
50.88
51.136
51.328
51.84
51.328
51.328
51.072
51.136
52.16
52.608
52.352
57.472
51.008
52.48
50.496
51.968
51.008
52.928
50.368
51.84
52.416
51.456
51.904
51.392
52.736
51.264
58.432
51.84
52.352
51.84
51.328
51.136
53.056
50.624
52.544
52.416
53.248
50.88
52.288
52.928
52.48
58.176
52.928
55.424
51.904
53.632
52.736
53.056
50.368
51.84
50.432
52.224
51.776
50.88
50.496
51.904
58.816
51.648
51.84
51.456
51.84
51.52
51.776
51.2
51.136
50.304
52.544
51.136
51.776
51.2
51.392
58.048
50.304
51.52
52.032
52.096
50.304
51.712
51.776
50.304
52.8
50.24
51.52
51.584
53.248
52.032
58.048
53.056
51.904
52.48
51.52
48.64
48.256
48.64
48.192
48.064
48.896
48.128
48.768
50.112
51.648
58.752
52.16
52.096
52.352
50.624
52.16
52.096
51.072
51.264
51.712
50.048
51.84
53.12
52.032
51.648
57.92
52.992
52.096
50.112
52.608
52.032
53.312
51.456
51.84
51.584
51.712
51.648
50.432
52.096
48.896
53.568
56
51.712
51.264
51.968
52.672
52.096
51.776
52.352
51.712
51.2
51.584
51.392
52.672
50.304
52.608
56.832
51.904
51.776
52.288
51.584
50.56
52.352
50.88
52.032
51.456
50.88
52.288
51.392
51.648
55.808
58.816
55.232
52.8
51.52
52.608
50.88
51.904
52.864
52.224
51.776
52.032
51.264
50.752
53.312
50.816
58.176
51.648
52.032
51.84
52.224
51.584
52.096
51.072
51.84
51.52
51.52
51.328
51.776
51.84
50.688
58.56
52.032
51.968
50.944
52.544
51.456
51.072
51.904
51.904
52.224
50.176
51.968
50.624
51.392
50.56
58.496
62.464
55.936
49.152
48.128
46.976
47.616
46.912
46.464
46.656
49.472
49.344
47.36
47.424
47.424
54.144
47.424
46.784
46.272
46.272
46.592
46.871
46.555
46.484
46.189
46.378
46.591
46.492
46.841
47.056
53.126
46.722
46.6
46.536
46.648
46.71
46.322
46.56
46.336
46.532
46.54
46.272
46.492
46.396
46.8
52.948
47.076
48.436
47.804
49.936
49.516
48.904
48.116
49.056
47.068
49.176
47.12
46.568
49.328
48.168
52.4
47.056
49.216
46.952
47.744
46.816
48.896
48.096
47.672
49.008
48.128
48.88
48.832
47.2
47.84
53.416
49.544
47.16
46.512
47.8
48.912
46.888
47.896
46.496
47.568
47.72
46.536
48.688
49.024
48.896
51.696
46.816
48.928
47.056
46.416
48.16
49.008
48.912
48.016
48.736
46.848
47.872
46.96
48.832
48.896
54.16
47.488
48.8
47.872
46.816
49.12
48.864
48.976
48.176
46.768
48.64
48.8
48.768
46.96
48.928
50.128
50.992
47.296
46.672
46.656
49.168
48.96
48.704
48.944
48.64
49.216
48.816
48.864
46.992
48.64
48.416
53.824
49.52
49.152
48.928
48.672
48.784
48.688
48.672
52.016
48.992
48.096
47.92
48.4
50.624
52.912
53.152
50.848
49.648
49.04
49.376
49.184
49.12
48.896
48.224
48.832
48.864
48.672
48.064
48.768
47.968
52.704
48.32
49.024
47.072
48.768
46.72
48.832
48.896
47.84
47.68
47.04
46.72
47.68
48.8
47.392
54.24
48.704
48.16
47.968
46.432
46.4
49.312
46.816
46.528
46.4
48.8
48.768
47.968
46.752
46.592
49.44
52.32
48.224
46.816
48.288
48.864
49.248
47.072
51.072
47.104
46.656
46.528
49.248
49.248
46.88
48.64
52.992
47.392
48.928
47.04
46.656
46.4
46.432
46.496
46.304
46.56
48.736
49.12
49.056
47.136
49.824
52.96
47.392
48.16
46.944
47.872
46.912
46.656
46.688
46.656
46.528
46.496
46.336
46.56
46.304
47.36
53.408
47.36
47.84
47.744
47.584
46.88
46.848
46.656
46.464
46.368
46.464
46.304
46.368
46.176
47.136
52.608
47.072
47.744
47.872
47.712
46.592
46.976
46.752
46.368
46.304
46.048
46.176
46.368
46.336
47.136
53.504
47.392
53.504
52.032
49.216
48.256
47.776
47.968
47.84
48.704
48.224
48.384
48.256
46.56
46.528
54.144
48.16
48.256
47.68
47.296
46.592
46.848
46.592
46.656
46.4
46.4
46.528
46.4
46.592
47.104
52.736
47.04
46.976
46.528
46.464
46.208
46.144
46.272
46.272
46.592
46.08
46.336
46.4
46.272
46.784
53.696
46.848
46.848
46.912
46.592
46.72
46.08
46.144
46.528
46.336
46.336
46.464
46.528
46.4
46.912
53.056
47.104
46.848
46.784
46.72
46.592
46.464
46.592
46.336
46.464
46.272
46.4
46.208
46.272
46.592
52.352
47.552
47.04
46.784
46.976
46.592
46.208
46.144
46.4
46.08
46.08
46.336
46.208
46.336
46.656
53.44
47.488
47.232
46.784
46.912
46.464
46.464
46.208
46.08
46.336
46.464
46.4
46.272
46.08
46.848
53.632
47.168
46.976
46.912
46.592
46.08
46.592
46.4
46.464
46.272
46.464
46.656
46.464
46.08
47.296
55.104
50.88
50.816
53.248
50.176
49.792
47.36
46.784
48.704
49.152
47.104
46.848
46.848
46.72
47.68
52.608
47.296
47.04
46.528
46.72
46.72
46.528
46.72
46.528
46.528
46.4
46.336
46.592
46.464
46.976
52.608
47.232
46.848
46.912
47.232
46.464
46.528
46.656
46.72
46.464
46.336
46.272
46.4
46.144
47.04
52.864
48.064
47.104
46.912
46.848
46.592
46.464
46.4
46.208
46.464
46.528
46.4
46.208
46.272
47.04
52.736
47.104
51.2
52.288
50.176
50.752
50.496
51.392
50.24
50.176
49.92
50.688
50.432
50.304
50.432
58.176
51.456
50.112
50.176
49.856
50.24
50.688
49.92
50.176
49.728
50.112
50.048
51.264
49.856
50.944
57.344
51.328
49.536
49.856
50.816
50.496
50.112
49.92
49.856
50.176
50.176
50.112
49.92
50.24
49.536
52.224
49.152
48
47.104
46.72
46.656
46.528
46.592
46.592
46.72
46.592
46.528
46.144
46.272
46.272
47.872
50.496
46.336
46.592
46.912
47.488
46.4
46.592
46.016
46.613
46.535
46.73
46.517
46.303
45.997
46.64
51.827
46.637
46.594
46.66
46.058
46.312
46.202
46.06
46.408
46.288
46.072
46.072
46.08
46.252
47.392
52.732
46.58
46.984
46.252
46.22
46.324
46.396
46.708
47.14
46.072
46.516
46.484
46.368
46.376
49.696
53.808
52.208
49.912
49.344
49.072
47.112
46.584
49.56
46.888
49.04
46.904
46.824
46.288
46.408
49.784
53.256
49.16
49.008
48.984
48.032
46.816
48.84
49.088
48.704
48.712
48.816
46.968
46.912
48.96
48.984
52.704
49.008
47.424
49.024
47.072
46.672
48.8
48.704
46.8
48.752
48.864
48.672
46.768
52.128
49.488
68.432
56.592
54.4
56.992
56.368
54.896
55.168
54.816
55.12
54.208
54.352
54.352
53.776
54.208
54.784
82.064
56.432
73.952
52.144
71.888
52.128
47.904
47.008
50.384
49.584
48.112
47.04
46.832
46.528
46.656
59.856
62.016
57.04
77.84
71.328
51.056
51.216
47.76
48.784
48.384
46.752
49.248
49.696
47.12
46.96
51.12
54.496
50.656
47.744
46.896
49.456
46.864
46.752
49.056
48.96
47.232
48.832
48.832
46.976
48.64
47.2
59.456
50.432
48.928
55.328
54.88
53.824
51.872
47.264
46.784
49.024
46.944
46.72
48.096
46.816
47.776
54.624
49.472
48.096
47.04
48.928
47.136
48.544
46.816
49.056
49.344
48.832
49.12
49.248
46.944
46.752
52.416
49.568
46.944
47.776
48.96
47.232
46.656
49.152
49.152
49.216
47.264
46.528
46.336
46.496
47.968
53.184
49.504
47.424
48.48
49.248
49.216
47.264
48.896
49.12
47.04
49.088
46.784
48.832
47.168
49.696
54.112
49.696
47.2
46.848
48.064
49.024
49.088
49.312
49.088
49.376
49.152
48.864
48.288
48
48.128
54.304
47.36
46.592
46.496
47.936
49.024
47.936
47.712
48.928
49.248
47.232
49.216
47.2
46.496
46.784
52.96
48.096
49.216
49.152
48.96
49.12
48.256
48.928
49.152
48.8
48.832
49.184
49.216
48.832
48.992
52.064
49.376
49.344
47.104
48.384
47.968
47.904
49.056
47.968
48.896
47.904
47.84
48.064
48.8
49.216
53.76
49.056
48.448
47.2
46.976
49.184
48
48.832
48.256
49.024
47.936
46.848
47.808
47.872
49.024
52.992
48.192
49.536
49.344
47.104
48.768
48.96
48.704
47.936
48.704
47.744
48.64
48.896
47.744
49.088
53.504
49.088
48.064
49.088
48.96
48.384
48.96
48.96
48
46.656
48.576
48.192
47.04
48.96
49.28
53.824
48.256
46.784
49.024
48.704
49.088
49.024
48.64
48.32
48.64
47.168
46.464
47.936
48.768
49.344
52.288
47.936
46.592
46.464
47.744
48.768
46.912
48.64
48.512
46.912
46.656
48.576
46.912
47.68
49.344
53.568
48.896
48.704
48.832
48.896
47.04
48.704
47.232
46.592
49.28
47.168
48.64
46.848
48.64
47.936
53.696
49.664
48.448
47.872
48.064
48.704
48.448
46.976
46.72
49.152
46.912
48.832
47.04
46.656
46.656
52.928
48.96
48.768
47.104
49.664
49.088
48.96
46.848
49.152
47.104
48.896
47.232
46.72
46.528
49.664
53.44
47.296
48.704
49.216
48.256
46.912
48.64
46.976
46.464
46.336
48.704
47.04
48.768
47.04
46.848
49.792
50.816
46.72
46.72
46.72
46.4
46.336
46.336
46.72
46.464
46.848
49.344
49.088
46.976
46.592
46.592
56.512
47.168
46.912
46.656
46.848
46.528
46.4
46.656
46.656
47.232
46.72
46.656
46.656
46.4
47.488
54.272
47.232
46.848
46.4
46.72
46.72
46.592
46.656
46.656
46.656
46.72
46.592
46.72
46.592
47.104
80.576
72.64
67.84
71.616
49.152
46.912
47.104
46.4
46.464
46.848
46.912
46.784
46.208
46.464
77.056
83.136
71.936
72.96
71.936
49.088
46.784
46.72
47.36
47.04
46.912
46.464
46.72
46.336
46.4
75.392
80.96
70.656
67.584
71.488
49.92
47.168
47.168
46.72
46.976
46.4
46.4
46.528
46.464
46.784
75.072
80.512
73.536
70.336
67.648
50.112
47.68
47.616
46.912
49.6
47.232
46.976
47.144
46.675
46.357
74.796
79.646
74.301
71.411
72.828
50.362
47.15
46.596
46.346
47.316
46.492
46.41
46.588
46.372
46.888
74.36
79.632
72.364
72.472
73.204
50.02
47.108
47.184
47.136
46.768
46.484
46.424
46.628
46.336
46.196
74.68
79.728
74.536
71.296
69.312
50.096
46.896
46.6
46.928
46.808
46.68
46.56
46.504
46.56
46.464
46.472
50.24
55.384
50.04
49.64
48.512
47.296
49.008
49.472
49.328
47.144
49.04
49.192
47.248
46.792
46.592
46.776
53.176
46.768
46.752
47.056
46.688
46.784
46.432
46.208
46.336
46.576
46.368
46.736
46.384
46.512
46.96
52.56
46.64
46.832
50.048
49.424
47.152
46.64
46.416
46.656
46.528
46.784
46.512
46.432
46.336
46.736
52.896
47.136
47.056
46.992
46.448
46.592
46.304
48.128
46.784
46.64
46.528
46.176
46.4
46.464
46.8
52.32
46.544
46.656
46.224
46.592
46.32
46.32
46.272
46.448
46.192
46.528
46.192
46.192
46.096
47.248
52.576
46.912
46.736
46.544
46.192
46.72
46.352
46.432
46.352
46.208
46.368
46.208
46.432
46.464
46.848
52.736
46.816
46.272
46.688
46.4
46.496
46.24
46.432
46.432
46.656
46.368
46.336
46.176
46.432
47.008
53.76
46.88
46.368
49.824
49.6
46.912
48.832
48.544
46.784
46.88
46.528
46.656
46.752
46.656
47.008
52.224
46.592
46.944
46.784
46.24
46.432
46.464
46.368
46.528
46.464
46.56
46.4
46.368
46.56
46.976
52.832
47.36
46.976
46.848
46.368
46.528
46.368
46.112
46.4
46.592
46.464
46.432
46.336
46.176
46.816
52.8
46.784
46.592
46.464
46.432
46.4
46.368
46.528
46.336
46.24
46.304
46.336
46.4
46.336
50.144
53.984
48.128
47.872
49.312
49.088
48.192
47.904
46.656
46.528
48.064
47.744
48.704
48.96
46.624
49.024
53.76
49.152
49.28
48.064
46.432
47.712
47.68
46.592
46.432
46.624
49.12
48.928
48.704
47.072
48.992
52.48
48.48
49.088
48.832
48.64
48.256
48.736
46.752
48.608
46.976
47.84
48.704
46.752
48.544
48.704
52.992
49.216
48.992
47.008
48.928
48.96
48.672
48.736
48.832
48.896
47.872
46.656
47.552
48.576
48.256
53.056
49.28
47.552
48.704
49.088
47.936
47.68
48.768
48.832
46.912
47.936
46.656
47.616
46.656
46.656
52.992
48.256
49.152
48.896
46.72
46.592
48.64
48.704
48.576
48.896
46.912
48.512
47.808
48.576
48.96
52.224
47.424
47.744
48.768
47.296
47.808
47.04
46.528
48.704
48.768
48.64
48.832
46.848
48.896
47.168
52.224
49.344
47.232
47.68
48.896
48.832
48.576
46.848
48.96
48.832
47.872
46.784
46.464
46.464
46.528
52.544
49.472
47.36
47.68
46.528
48.512
48.96
48.768
46.976
48.64
48.768
47.104
48.64
48.192
46.976
53.76
49.088
46.784
48
47.488
46.72
46.528
48.768
47.872
48.576
48.96
46.848
48.576
46.912
48.896
52.16
46.976
48.896
48.832
48.704
48.704
48.704
46.656
46.528
46.272
46.592
48.704
47.104
48.384
47.168
54.272
49.216
49.088
47.872
48.96
47.808
47.744
48.96
48.64
46.976
48.448
47.936
47.808
48.64
48.768
55.04
48.384
48.64
47.296
47.936
48.768
49.28
47.936
47.104
46.848
46.464
46.848
46.4
46.528
46.784
52.352
47.168
46.656
49.472
49.024
46.976
46.4
46.656
46.272
46.208
46.272
46.4
46.4
46.72
46.592
49.728
51.392
46.784
46.592
46.336
46.656
46.464
46.656
46.528
46.336
46.272
46.4
46.272
46.4
46.4
46.976
52.992
46.912
46.656
47.168
46.592
49.152
49.152
47.104
46.976
46.976
46.592
46.208
46.72
46.4
46.464
53.184
46.912
46.464
46.592
49.344
46.912
46.592
48.96
46.976
46.976
46.528
46.592
46.528
46.592
46.848
57.984
54.144
54.208
48.384
46.912
47.04
46.72
46.784
46.656
46.464
46.464
46.656
46.592
46.592
46.912
54.656
48.384
47.616
47.488
47.552
47.616
47.36
47.232
47.488
47.552
47.232
47.424
47.104
47.36
47.858
52.277
46.744
46.908
46.883
46.615
46.73
46.664
46.185
46.484
46.456
46.696
46.644
46.554
46.564
46.994
51.648
46.496
46.836
46.904
46.604
46.104
46.092
46.348
46.332
46.6
46.352
46.428
46.412
46.548
46.908
52.22
46.608
47.028
46.424
46.632
46.704
46.488
46.464
46.608
46.288
46.6
46.8
46.496
46.656
46.488
52.464
51.408
46.536
46.992
46.464
46.512
46.496
46.496
46.392
46.472
46.336
46.248
46.336
46.4
46.504
47.512
57.44
49.888
48.144
50.296
49.528
52.432
48.416
47.584
49.408
49.472
50.144
49.312
49.808
49.216
49.68
54.272
49.504
49.312
52.752
48.816
50.24
49.12
51.056
50.304
49.664
49.456
48.928
49.376
48.624
48.384
52.096
49.184
49.312
49.088
49.168
47.904
47.904
49.008
48.784
47.952
48.88
48.832
48.016
47.296
47.872
53.024
47.104
48.992
49.168
47.232
47.92
48.128
47.872
48.8
46.96
49.152
46.992
47.856
47.824
48.112
53.584
49.6
47.296
49.088
49.136
47.04
47.04
46.4
47.968
46.736
48.848
46.928
46.656
48.832
49.152
52.192
49.344
47.136
46.816
48.864
48.8
48.704
48.896
48.768
48.672
48.736
48.576
48.672
48.704
48
50.144
49.92
46.88
49.312
49.056
48.768
48.928
48.8
48.608
48.512
48.544
48.832
48.64
48.192
47.968
48.192
53.76
49.472
48.032
48.832
49.088
48.64
48.736
48.768
48.672
48.896
48.736
48.896
48.608
48
48.928
54.336
47.52
49.376
49.12
48.928
48.864
48.064
48.544
49.12
49.152
49.024
48.704
48.096
49.088
49.024
51.776
47.456
49.472
46.912
49.056
47.936
47.936
48.864
48.192
48.704
48.768
48.768
48.672
48.64
48.16
53.664
47.296
46.752
46.464
49.056
49.088
48.608
48.768
48.032
47.744
48.032
47.584
48.576
48.96
48.544
54.432
49.92
48.832
52.608
48.736
47.904
49.28
48
47.712
47.424
47.296
47.616
47.584
47.296
47.968
52.832
46.88
46.912
46.304
46.208
46.4
46.464
46.368
46.592
46.368
46.24
46.752
46.496
46.528
46.912
52.48
46.592
50.752
47.296
46.56
49.344
47.296
46.944
46.624
46.688
46.432
47.04
46.656
46.592
46.848
52.48
46.976
46.784
46.784
46.528
46.592
46.656
48.832
46.976
53.44
48.32
47.04
46.72
46.784
46.4
52.416
46.976
47.168
46.784
46.848
46.848
49.664
49.408
47.424
46.848
46.656
46.72
46.464
46.656
46.848
52.16
46.848
47.232
46.72
46.784
46.848
46.464
46.464
46.208
46.464
46.464
46.4
46.336
46.272
46.656
52.544
46.656
46.656
46.656
46.592
46.528
46.528
46.528
46.528
46.784
46.592
46.592
46.592
46.592
46.912
52.8
46.784
46.656
46.528
46.4
46.464
46.336
46.336
46.272
46.592
46.4
46.464
46.208
46.272
46.272
50.944
50.816
46.912
46.72
46.656
46.4
46.784
46.464
46.656
49.344
49.216
47.296
46.72
46.72
46.4
46.912
53.12
47.936
47.872
47.68
47.616
47.616
47.552
47.68
47.04
47.232
47.296
47.424
47.36
47.296
47.68
52.544
46.72
46.976
46.976
46.72
46.784
46.464
46.592
46.592
46.592
46.4
46.464
46.464
46.4
46.464
56.64
47.232
46.976
46.72
46.848
46.464
46.656
46.336
46.464
46.464
46.144
46.656
46.08
46.72
52.416
56
48.128
50.176
47.424
46.72
49.728
47.488
46.976
46.656
46.784
46.528
46.464
46.4
48.576
49.6
52.224
47.04
47.04
46.656
46.528
46.464
46.464
46.208
48.384
46.72
46.272
46.72
46.592
46.528
47.04
52.352
46.592
46.528
46.464
46.528
46.656
46.144
46.272
46.208
46.464
46.272
46.336
46.464
46.336
47.424
53.184
46.656
46.72
46.592
46.336
46.336
46.272
46.336
46.208
46.272
46.4
46.208
46.208
46.272
46.592
51.968
46.464
46.464
46.528
46.4
46.336
46.336
46.208
46.336
46.208
46.336
46.336
48.192
46.784
46.912
52.224
46.656
46.528
46.464
46.4
46.4
46.528
46.72
46.528
48.768
46.912
46.72
46.528
46.592
46.592
52.544
46.925
46.639
46.861
46.706
46.538
49.73
49.107
47.484
46.665
46.702
46.704
46.604
46.624
47.034
51.676
46.712
46.682
46.552
46.152
46.672
46.428
46.424
46.548
46.316
46.376
46.44
46.204
46.32
46.848
51.932
46.716
46.676
46.64
46.276
46.44
46.432
46.448
46.28
46.288
46.504
46.32
46.472
46.488
46.8
52
46.544
46.664
46.384
46.176
46.056
46.216
46.192
46.312
46.328
46.464
46.408
46.328
46.28
46.592
52.08
46.76
46.664
46.352
46.536
46.112
46.464
46.12
46.496
46.256
46.224
46.192
46.336
46.176
46.224
52.464
54.352
47.552
46.672
46.736
46.928
46.304
46.144
46.16
46.48
46.144
46.112
46.576
46.432
46.224
49.776
55.184
48.96
53.008
50.064
49.328
47.552
48.928
49.04
47.216
46.704
46.608
46.352
46.192
46.288
49.024
54.32
53.456
47.424
47.04
49.136
47.152
49.088
46.816
46.656
46.4
48.72
47.152
46.432
46.512
46.672
54.56
49.568
48.624
48.64
52.464
49.36
47.36
46.624
49.072
49.168
46.96
46.656
48.672
46.704
49.312
52.064
48.896
49.216
48.768
49.312
49.344
46.944
49.024
46.816
46.944
48.928
46.848
46.592
48.768
49.28
53.536
49.152
47.392
49.248
49.184
46.976
48.8
46.88
46.688
48.704
48.832
47.136
48.576
46.784
48.832
53.664
49.472
47.296
48.8
47.104
48.928
49.088
46.816
46.784
48.736
46.816
46.944
48.672
48.896
47.104
52.128
46.816
49.344
46.88
46.432
46.304
46.368
46.304
48.8
46.912
46.912
46.368
48.96
49.216
48.8
53.408
47.264
49.184
47.072
48.8
48.96
47.008
46.688
46.624
48.736
48.864
48.8
46.72
49.024
49.216
52.992
49.088
47.52
49.12
47.136
46.432
46.528
46.336
48.992
46.976
48.864
46.912
46.432
46.496
46.88
53.92
47.808
47.168
49.536
47.328
48.96
49.28
46.912
46.4
46.368
47.136
46.464
46.432
48.8
47.264
52.096
47.232
46.912
49.28
49.12
46.784
48.544
48.8
46.784
48.64
48.896
46.848
48.608
46.752
48.96
51.584
46.784
49.312
47.072
46.432
46.528
46.464
48.8
48.928
48.736
46.944
48.64
48.832
46.88
46.72
52.096
49.344
49.216
49.088
48.64
48.896
47.04
46.528
46.528
46.912
46.656
46.656
46.528
48.768
47.36
52.096
49.216
47.232
46.784
46.528
48.704
48.96
46.912
48.576
48.896
46.912
46.656
48.96
49.024
47.232
56.448
49.536
49.472
48.768
46.976
48.832
48.704
46.912
46.592
48.704
48.96
46.72
48.704
46.784
46.528
49.024
53.44
47.168
46.4
46.848
48.96
47.04
46.784
46.272
46.464
48.768
46.72
48.96
48.896
47.232
47.488
52.992
46.784
49.408
48.96
49.216
46.848
46.528
46.656
46.528
46.464
46.784
46.528
48.704
46.848
48.704
52.928
48.896
48.96
47.04
46.528
46.4
46.464
46.912
46.4
46.4
46.272
46.336
48.896
48.96
47.296
54.976
53.184
49.792
49.216
49.088
48.768
46.976
46.656
48.704
49.024
49.472
47.04
46.72
46.912
49.28
52.992
47.296
47.04
46.784
46.656
46.72
46.272
46.336
46.4
46.4
46.336
48.96
46.848
46.592
49.024
52.224
46.784
46.592
46.656
48.768
46.848
46.72
46.528
46.336
46.336
46.4
49.344
49.024
49.024
46.912
53.76
47.296
46.464
46.784
46.336
46.592
46.784
46.272
46.336
46.336
46.336
49.024
49.088
46.848
49.088
53.632
47.168
47.04
49.472
49.216
47.36
46.784
46.976
48.576
46.72
48.704
47.04
46.336
46.4
52.032
53.568
50.56
49.664
49.28
49.024
46.912
48.832
49.216
46.848
48.896
46.848
46.592
46.4
48.768
47.04
53.184
46.912
49.152
49.216
48.64
46.912
46.528
46.528
46.464
48.768
48.832
46.976
46.656
46.592
48.96
50.176
50.304
47.552
49.024
47.296
46.4
48.832
46.848
48.64
48.576
46.976
46.656
46.272
46.336
46.272
46.976
52.544
49.408
48.896
48.96
47.488
46.848
46.592
48.832
48.768
46.912
46.592
46.656
48.64
48.704
48.832
52.352
49.216
47.104
47.256
46.621
49.133
47.165
46.622
46.601
46.677
46.44
48.869
46.688
47.03
46.8
54.236
47.468
47.184
46.708
46.992
46.228
46.46
49.312
46.756
46.56
48.892
47.3
47.068
46.524
46.66
53.396
49.396
47.14
50.548
47.48
46.548
52.008
47.096
49.056
49.264
48.768
51.072
48.304
49.648
47.512
54.816
49.808
52.768
48.488
49.544
48.8
48.528
48.776
48.592
48.232
52.032
50.392
50.8
48.48
50.024
54.072
47.488
46.864
49.256
49.064
47.2
46.768
48.576
47.304
46.648
46.56
48.704
49.184
47.232
48.832
51.584
46.88
46.896
46.512
49.52
48.992
47.04
46.72
46.288
46.592
47.712
49.008
49.056
49.136
47.648
53.968
49.184
52.576
49.984
48.992
51.984
48.368
47.648
47.728
47.344
47.536
47.296
47.28
47.376
47.808
51.28
49.584
47.2
46.88
46.496
46.896
46.496
46.576
46.288
46.64
46.496
46.528
46.448
46.544
46.384
47.312
52.368
46.896
46.608
48.704
46.896
46.56
46.352
46.624
46.528
46.48
46.4
46.608
46.528
46.352
46.992
52.416
46.592
46.272
46.592
46.464
46.56
47.072
46.432
46.496
46.528
46.336
46.368
46.336
46.24
46.88
54.016
47.776
47.744
47.136
47.36
47.328
47.2
47.296
47.2
47.104
47.008
46.976
46.976
47.2
47.456
53.216
47.872
47.552
47.2
47.168
46.976
47.04
47.2
47.04
47.04
46.944
47.36
46.976
46.912
47.84
53.568
47.488
47.776
47.424
46.912
47.136
47.008
47.104
47.168
46.912
46.88
46.88
46.944
47.264
47.424
53.312
47.584
47.232
47.296
47.04
46.944
47.008
47.008
47.008
47.136
46.848
47.04
46.944
46.976
47.968
53.504
47.296
47.296
47.392
47.296
47.296
46.592
46.592
46.336
46.464
46.432
46.432
46.272
46.56
47.52
57.088
49.696
46.976
46.432
46.368
46.592
46.336
46.208
46.4
46.304
46.272
46.24
46.656
46.592
46.592
57.728
49.12
46.848
46.816
46.4
46.624
46.4
46.208
46.592
46.368
46.112
46.464
46.656
46.656
47.872
56.896
48.192
48.896
54.976
53.312
47.84
46.784
46.688
49.568
47.2
49.024
47.392
46.944
46.976
49.44
54.24
47.68
46.848
46.592
46.528
49.28
47.36
46.784
46.72
46.592
46.528
46.72
46.848
46.656
46.912
54.592
47.552
46.912
46.528
46.336
46.4
46.528
46.4
46.4
46.208
46.208
46.336
46.592
46.272
46.848
52.16
47.104
46.72
46.528
46.208
46.272
46.336
46.4
46.208
46.656
46.144
46.336
46.272
46.4
46.912
54.016
47.744
46.976
46.656
46.144
46.336
46.336
46.528
46.528
46.656
46.784
46.848
47.104
46.656
46.528
50.944
50.112
47.168
47.232
53.312
47.552
46.784
46.912
46.912
47.168
46.784
46.656
46.464
46.528
46.464
47.68
53.44
47.168
47.04
46.592
46.592
46.272
46.208
46.144
46.4
46.4
46.912
46.656
46.784
46.464
46.72
52.416
47.04
46.976
46.592
46.336
46.464
46.656
46.272
46.208
46.976
46.4
46.272
46.272
46.4
46.592
54.272
48.192
48.064
47.552
46.656
46.592
46.208
46.208
46.464
46.336
46.464
46.208
46.08
46.336
46.912
54.272
47.552
46.912
46.976
47.616
46.976
48.96
46.592
46.208
46.4
50.112
50.112
47.68
47.296
47.104
55.104
47.68
46.848
46.784
46.72
46.592
46.464
46.336
46.528
46.976
46.464
46.208
46.336
46.592
47.36
53.632
50.816
48.768
47.296
50.048
47.744
47.232
46.4
49.152
47.232
46.592
49.408
47.04
49.152
47.04
53.632
49.024
49.472
48.832
48.448
52.288
47.488
49.472
49.536
47.296
49.152
47.232
47.04
49.472
49.728
54.72
49.728
47.296
47.552
49.6
49.536
47.488
46.912
47.104
46.976
46.976
46.592
49.408
47.616
47.04
54.656
50.688
47.552
47.104
47.104
49.728
49.792
47.36
47.36
47.232
49.216
47.36
47.296
49.024
47.616
54.144
48.576
56.064
54.016
53.184
52.032
49.6
47.36
46.464
46.72
49.408
48
47.296
47.104
47.232
53.184
47.744
55.872
53.696
52.864
53.504
54.378
53.396
53.145
52.928
52.195
47.348
49.469
49.053
49.222
53.978
49.858
47.922
49.138
49.244
47.092
49.272
49.14
47.284
46.872
49.172
49.052
47.084
47.268
49.192
52.392
49.296
49.756
49.524
47.008
48.928
46.792
46.744
46.304
48.716
48.88
46.864
46.864
46.688
46.704
49.56
52.488
49.696
49.2
49.072
48.952
48.872
48.736
48.936
48.728
46.976
46.736
48.752
48.936
47.48
47.744
52.392
47.336
47.104
47.248
49.496
47.056
46.984
46.672
49.176
49.432
47.584
49.296
47.712
47.36
49.2
54.192
47.328
47.376
46.832
46.432
46.896
49.216
49.424
47.248
48.976
47.024
47.328
46.464
46.368
46.704
52.544
47.472
46.688
46.992
49.344
47.52
48.912
48.736
46.704
47.136
47.152
49.232
47.392
47.024
49.376
53.568
50.336
47.136
46.768
49.664
48.944
48.992
47.184
47.152
46.48
46.368
46.544
46.608
46.72
46.976
53.088
46.864
46.448
46.752
46.24
46.72
46.64
46.336
46.464
49.488
46.992
49.472
46.784
46.816
46.736
54.08
47.168
46.464
46.48
46.496
46.464
46.464
46.144
46.176
46.464
46.24
46.4
46.432
46.656
46.688
53.728
46.848
46.432
46.496
46.624
46.272
46.432
46.464
46.336
46.304
46.4
46.208
46.432
46.528
46.4
49.504
60.448
53.952
53.056
52.864
52.928
54.24
53.248
52.672
52.672
54.656
54.08
54.08
54.08
54.72
53.024
58.72
53.088
52.768
52.672
52.992
53.248
47.808
49.792
49.44
47.04
49.088
47.328
47.008
46.752
48.128
52.288
47.296
46.496
46.784
46.336
46.432
46.272
46.592
46.592
46.464
46.496
46.624
46.208
46.656
46.72
52.544
46.912
46.656
46.528
46.784
46.56
46.272
46.304
46.368
46.304
46.208
46.56
46.272
46.24
46.848
53.216
46.752
46.688
46.464
46.4
46.208
46.272
46.496
46.304
46.208
46.24
46.368
46.432
46.4
46.592
52.32
46.656
46.56
46.464
46.56
46.336
46.368
46.24
46.048
46.496
46.4
46.528
46.528
46.176
47.008
52.896
47.296
46.752
46.496
46.24
46.272
46.56
46.528
46.656
46.176
46.4
46.464
46.432
46.464
46.368
48
51.232
46.688
46.784
46.528
49.792
46.976
46.72
46.656
46.4
49.6
47.04
47.04
46.72
46.4
46.784
52.416
46.848
46.592
46.4
46.592
46.592
46.208
46.144
46.592
46.464
46.656
46.464
46.464
46.464
46.464
53.184
46.528
46.72
46.528
46.336
46.4
46.464
46.4
46.08
46.336
46.4
46.272
46.4
50.176
47.424
54.4
47.488
46.784
46.656
49.536
47.296
46.592
46.464
46.592
49.088
47.488
46.784
46.4
46.848
48.192
52.352
47.04
46.656
46.528
46.464
46.528
52.416
49.984
50.304
52.352
51.776
49.792
48.32
47.232
48.576
85.76
79.488
72.704
72.064
75.456
55.296
54.144
53.376
53.376
53.632
52.992
53.888
53.44
52.224
53.888
74.048
76.416
76.16
71.104
68.736
71.36
72.192
55.872
53.248
53.12
53.184
53.184
52.864
52.544
53.248
74.368
75.648
59.072
54.4
54.4
53.056
52.544
52.992
53.568
52.032
52.416
52.224
52.096
52.8
52.224
52.928
57.216
53.248
53.44
53.248
52.416
51.84
52.48
52.16
52.224
52.608
52.416
52.096
52.032
52.096
52.992
57.408
53.312
53.056
52.544
52.48
52.224
52.224
52.544
52.224
52.032
52.48
52.544
52.096
52.096
52.8
56.576
52.8
52.288
52.608
52.48
51.968
52.352
52.096
51.84
52.032
52.032
52.16
51.776
51.968
52.736
56.384
53.376
52.864
52.8
53.12
52.288
52.096
51.84
52.032
51.904
51.776
51.712
52.096
52.224
52.8
56
52.864
53.056
52.736
53.12
53.952
53.824
53.44
53.12
53.888
53.76
53.312
53.696
52.992
52.992
56.128
52.864
52.992
53.568
53.824
52.8
53.568
52.864
53.312
53.504
53.376
53.376
52.928
53.632
52.864
56.64
53.376
52.8
52.8
52.992
53.44
52.8
53.184
52.864
53.184
53.248
53.312
53.312
52.8
52.992
56.64
53.184
52.992
52.864
53.184
53.248
53.184
53.081
52.789
52.771
52.615
53.321
52.964
53.181
51.899
54.745
55.672
52.248
52.258
52.888
52.43
52.116
51.922
47.834
48.768
48.632
48.544
48.144
48.632
48.168
48.828
54.124
48.676
48.696
49.088
48.264
48.272
47.98
48.048
48.932
48.576
47.824
47.752
48.024
47.96
49.12
55.336
50.424
49.712
49.24
52.264
51.104
52.328
52.16
52.664
52.304
52.448
51.744
51.024
53.088
49.976
55.032
49.496
49.256
49.52
51.04
52.888
52.344
52
52.024
51.36
52.424
52.256
52.064
50.624
49.248
54.256
49.184
48.784
48.608
51.648
50.736
53.216
53.136
52.384
53.36
51.136
52.32
52.192
52.032
49.2
53.152
48.656
49.52
49.424
50.992
51.648
52.576
52.16
51.2
52.112
51.104
51.808
52.56
52.736
50.944
56.384
50.128
48.768
49.232
48.8
48.432
48.256
48.832
49.152
48.368
48.992
48.096
48.704
48.016
48.512
53.216
49.296
49.024
49.248
50.624
50.912
51.552
54.432
54.08
53.696
54.832
53.984
54.208
53.664
53.856
58.656
52.992
52.656
51.504
51.312
52.48
52.064
51.104
52.256
50.976
52.256
50.592
52.544
52.352
49.76
57.216
51.296
51.04
51.04
51.904
51.104
52.8
51.84
51.136
50.688
52.672
51.744
52.544
52.32
48.8
57.632
54.336
51.04
51.104
52.768
51.936
51.936
51.808
52.576
52.352
50.56
52.032
50.688
52.64
49.344
48.416
53.216
49.12
51.904
52.512
52.416
52.608
50.912
52.288
52
50.4
50.752
51.136
51.136
51.968
51.52
60.096
53.824
51.776
52.256
57.44
56.8
56.416
57.088
56.128
56.224
56.896
57.632
56.32
56.416
56.384
63.008
57.6
58.432
56.928
57.376
57.44
57.408
53.728
54.016
53.376
52.512
52.736
52.736
52.896
71.52
76.416
79.904
76.128
72.928
70.528
68.032
55.712
53.952
53.44
53.088
53.408
52.64
52.672
52.928
59.776
56.384
53.152
48.8
47.776
47.392
47.328
47.008
46.912
46.688
46.816
46.816
46.816
46.656
46.432
46.784
50.208
50.784
46.816
47.2
46.432
46.304
46.432
46.848
46.208
46.496
46.24
46.528
46.56
46.4
46.592
47.36
53.632
47.008
46.592
46.4
46.464
46.4
46.464
46.464
46.272
46.272
46.272
46.656
46.464
46.4
47.04
53.696
47.616
47.808
51.712
50.048
47.104
46.656
49.664
47.104
49.28
49.344
49.088
46.976
48.64
47.68
54.4
49.472
47.36
49.024
48.96
46.784
48.704
48.896
47.04
46.72
46.528
48.832
46.848
46.784
46.848
54.464
47.616
49.216
48.896
46.912
49.024
46.912
48.704
46.784
46.656
46.528
46.464
46.4
46.272
46.592
58.688
48
50.816
49.216
47.04
46.656
46.464
46.336
46.4
46.336
49.024
46.912
48.896
48.832
47.296
71.04
61.056
59.52
58.56
58.624
58.432
58.048
57.344
57.152
57.28
57.728
57.216
57.856
57.6
57.664
59.52
58.24
57.152
58.176
57.536
56.96
57.344
57.728
57.28
57.216
56.832
57.28
56.896
57.28
56.192
60.224
57.664
56.96
56.448
57.472
56.96
56.64
57.024
56.512
56.832
52.928
52.544
52.416
52.48
48.384
56.576
53.376
52.672
52.8
52.864
52.8
52.544
52.544
52.352
52.16
52.48
52.352
51.712
52.608
57.472
59.968
50.816
49.536
49.792
53.184
52.736
52.096
51.904
51.712
51.84
52.864
52.288
52.16
52.416
56.704
63.104
54.784
49.472
48.384
49.216
48.448
48.384
48.384
47.872
48.192
47.808
48.64
48
48.704
54.4
58.368
54.272
53.376
53.504
53.632
53.824
53.12
52.928
53.568
53.248
52.8
53.184
53.504
53.184
54.336
58.688
49.536
49.728
48.512
48.448
48.96
49.088
49.088
48.64
48.512
48.576
48.192
48.384
48.96
49.088
52.672
49.152
48.768
48.704
48.448
48.896
48.064
48.064
48.256
48.896
48.64
48.704
48.64
48.064
54.464
58.368
54.08
50.112
49.024
48.256
48.576
48.128
48.32
48.064
47.808
47.936
47.872
47.936
48.32
48.448
57.152
50.048
48.832
48.256
47.936
48.896
48
48.448
48.32
48.585
48.054
49.026
48.875
48.248
48.882
48.448
56.644
50.413
49.392
48.716
48.248
48.494
47.828
49.092
47.832
48.912
48.048
48.836
48.88
48.632
49.24
56.24
49.396
48.776
48.44
48.42
48.24
48
48.104
49.164
48.416
48.072
48.46
49.216
48.4
49.272
55.776
49.12
48.936
48.36
49.416
48.408
48.424
48.304
48.848
48.168
48.336
47.864
47.816
48.568
48.64
57.28
49.576
48.6
49.328
48.624
48.072
48.12
47.872
48.48
48.36
48.92
48.784
48.072
47.944
48.08
58.848
54.56
54.608
54.384
54.304
54.304
54.32
53.472
53.648
54.064
53.68
53.856
53.76
53.536
53.504
57.936
54.064
53.584
53.504
53.408
53.68
48.4
48.208
48.608
48.928
48.816
48.688
48.544
48.32
48.192
52.8
48.112
48.496
48.624
48.192
48.592
47.92
48.432
48.416
48.064
48.704
47.824
47.904
48.592
48.496
52.896
48.032
48.336
48.656
48.288
48.864
48.08
48.352
48.064
48.464
48.432
47.888
47.728
47.824
48
59.296
49.2
48.928
48.656
49.232
48.256
48.784
47.936
47.904
48.48
47.968
47.808
48.576
48.032
48.96
53.408
48.608
48.032
48.032
48.832
48.192
48.608
48.064
47.84
48.64
48.064
47.936
48.672
50.688
49.408
53.184
48.896
48.864
48.32
47.904
50.272
48.96
48.544
48.8
48.544
48.512
48.576
48.64
49.056
48.64
59.456
53.888
54.048
53.376
53.76
54.4
53.568
53.792
53.952
54.08
54.016
53.76
53.536
48.864
48.32
57.824
56.608
54.016
54.208
53.76
53.44
53.184
53.632
53.472
53.856
54.048
53.6
53.664
53.504
53.44
54.016
57.152
53.728
53.888
53.536
54.08
53.824
53.888
53.216
53.408
53.184
53.76
53.152
53.408
53.504
53.792
58.784
53.728
53.568
53.984
53.408
54.208
53.248
54.432
54.208
53.632
53.568
53.44
53.664
53.824
53.504
58.336
53.888
53.728
53.536
53.6
53.408
53.728
53.632
53.376
53.536
53.408
53.664
53.632
53.504
53.696
57.632
53.92
53.536
53.408
53.536
54.208
53.792
53.92
53.472
53.248
53.824
53.376
53.376
54.176
54.4
57.536
53.92
53.536
53.504
53.856
53.536
53.696
53.888
53.44
53.568
53.376
54.08
53.312
53.76
53.76
58.624
49.344
49.536
48.192
48.832
48.768
48.576
49.024
48.256
48.896
48.96
48.192
47.872
48.896
48.384
59.584
55.488
54.592
55.04
53.888
51.2
49.728
49.088
48.32
48.96
48.704
48.32
48.704
49.152
51.136
52.032
48.96
48.96
48.64
48.832
48.576
48.448
48.576
48.256
48.192
48.512
48.896
48
48.576
48
54.336
49.472
49.216
48.448
48.896
48.064
47.808
48.064
48.32
48.192
48.512
47.872
48
48.064
48.192
52.416
48.32
48
48.32
48.512
47.808
49.472
48.064
47.808
47.936
48.768
48.192
47.936
48.576
49.088
52.736
49.088
48.192
48.256
49.408
48.896
48
48.128
47.808
47.616
47.872
47.872
48.64
48.576
48.896
52.928
48.512
48.704
48.832
48.192
48.32
47.744
48.448
48.96
48.192
47.744
48
47.872
48.384
53.952
59.136
55.168
54.464
53.696
53.44
53.44
53.248
53.312
54.592
53.632
53.696
49.088
48.192
48.192
47.936
51.264
49.216
48.832
48.448
48.128
48.064
48.512
48
48
47.68
48.384
48.064
47.808
48.448
48
51.712
49.024
48.064
47.744
47.744
48.832
48.064
47.936
48.64
48.576
48.128
47.936
48.512
48.064
47.744
52.992
50.624
48.96
48.64
48.384
48.064
47.872
48.448
48.128
47.744
48.448
48.192
47.936
47.936
48.128
47.808
58.432
53.632
53.568
54.016
53.632
54.144
53.632
53.696
49.792
48.576
48.256
47.808
48.192
48.32
49.472
59.776
53.696
53.952
54.464
53.952
53.632
53.632
53.248
53.824
53.44
53.376
53.184
53.376
52.736
53.952
57.856
53.888
53.696
53.696
52.992
53.696
52.992
53.184
53.824
53.504
53.376
53.184
53.376
53.312
53.248
58.56
54.272
53.824
53.952
53.44
53.056
53.12
52.928
53.056
53.056
53.312
54.006
53.323
52.875
53.351
58.931
54.988
54.65
54.428
53.929
53.362
53.148
53.316
53.312
52.744
53.272
53.474
53.118
52.712
53.204
57.68
53.872
53.32
48.6
49.44
48.308
48.008
47.9
47.936
47.812
47.78
47.756
47.868
47.808
48.312
52.36
49.92
48.648
48.128
48.016
48.256
48.16
48.368
48.648
48.432
47.816
47.896
47.896
47.784
48.664
53
48.448
49.008
48.632
47.976
48.4
47.776
47.92
48.72
49.32
48.256
48.304
47.72
48.344
48.216
53.32
49.048
48.576
48.656
48.448
48.048
47.984
47.952
48.496
47.552
48.288
48.352
47.856
47.664
48.064
52.96
54.096
54.032
54.56
53.952
53.232
53.232
54.032
53.504
53.744
53.2
53.136
53.712
53.392
54.032
57.408
53.664
53.536
53.28
53.184
53.488
53.424
52.896
53.024
52.96
53.712
53.232
53.296
53.088
53.888
57.856
53.344
53.2
53.312
53.152
53.312
53.104
53.008
53.056
54.128
53.424
53.888
53.76
54
53.536
58.144
52.816
54.368
53.648
53.568
53.488
53.456
53.152
53.152
53.2
53.248
53.088
53.376
53.952
54.112
58.4
53.568
53.504
53.856
53.184
53.312
53.888
53.216
53.536
53.056
53.92
53.248
53.632
53.824
53.44
58.56
53.888
53.952
53.6
54.848
53.44
53.6
53.504
53.696
53.44
53.696
53.504
53.632
53.216
53.76
58.816
54.08
53.952
54.144
54.144
54.112
53.376
53.632
53.536
54.016
53.536
53.504
53.536
53.664
54.592
58.272
54.112
54.304
53.728
53.6
54.4
54.272
53.92
53.824
53.696
53.728
53.76
53.568
53.888
53.888
58.72
53.792
54.4
53.792
53.696
53.504
53.664
53.696
53.632
53.568
53.536
53.632
53.472
53.472
53.824
58.304
53.664
54.144
54.144
54.24
53.632
53.472
53.824
53.536
53.952
53.664
54.048
53.856
53.824
53.984
58.688
54.016
54.144
53.824
54.208
53.984
53.888
53.44
53.536
53.952
53.76
53.632
53.632
53.984
54.208
59.104
54.336
54.08
53.984
53.696
53.824
54.784
53.792
53.696
53.888
53.504
53.728
53.728
53.44
53.632
57.248
53.728
54.368
54.144
53.728
53.536
53.472
53.76
53.632
53.536
53.248
53.248
53.376
54.016
53.568
58.496
54.336
54.016
54.016
54.016
53.952
53.888
53.568
53.312
54.208
53.568
53.888
53.952
53.312
53.632
58.112
53.888
53.568
54.016
53.888
53.952
53.888
53.504
53.76
53.504
54.016
53.888
53.632
53.632
53.568
54.208
58.24
54.272
54.592
54.528
53.952
54.208
54.208
54.016
53.632
53.632
54.656
53.248
53.184
53.824
53.824
58.752
54.08
54.08
53.76
53.312
53.952
53.312
53.824
53.952
54.208
54.08
53.824
53.76
53.376
53.632
58.688
54.144
54.08
53.888
53.76
54.016
53.632
53.696
53.888
53.952
53.696
53.632
53.632
53.824
53.632
58.88
53.696
53.824
54.016
53.44
53.44
53.312
53.12
53.376
53.184
53.248
53.824
53.312
53.888
54.08
57.536
53.952
48.832
48.64
48.128
49.088
48.704
48.128
48.256
49.28
48.384
48.704
48.704
48.512
48.768
52.736
49.664
49.024
48.768
48.32
49.28
48.896
48.96
48.512
48.064
48.64
47.936
48.32
48.256
53.504
58.816
54.016
53.952
53.76
53.824
53.76
53.056
54.016
53.248
53.248
53.248
53.12
53.12
53.184
53.76
58.432
53.824
53.248
54.336
54.144
53.568
53.568
53.504
53.504
53.824
53.76
53.312
53.184
53.568
53.76
57.856
54.016
53.504
53.568
53.888
53.248
48.512
48.192
48.896
48.768
48.192
48.384
48.896
48.32
50.816
54.464
49.152
48.384
49.216
48.64
48.448
47.936
48.064
47.872
48.064
48.576
48.064
48
48.128
48.512
51.968
48.512
48.192
49.216
49.408
49.216
48.704
48.192
48.192
49.088
48.448
47.872
48.896
48.064
48.256
51.712
50.304
49.472
48.256
47.936
48.256
48.32
48.128
49.216
48.768
48.128
48.192
48
48.64
47.936
54.144
58.496
54.272
53.376
49.472
48.32
47.936
47.552
47.616
48.64
48.064
47.808
48.832
48.192
48.512
54.5
58.722
54.323
53.664
53.898
53.143
54.273
53.48
53.374
53.156
53.082
53.44
53.536
53.548
53.246
53.412
58.012
53.72
53.652
53.544
54.116
54.044
53.512
53.636
54.124
53.58
53.916
53.344
53.804
53.336
53.748
58.54
54.356
54.068
53.632
53.808
53.736
53.416
53.424
53.168
53.232
53.528
53.792
53.624
53.296
53.584
58.552
53.832
53.704
53.296
53.736
53.504
53.536
53.224
53.488
53.24
53
53.392
53.432
53.632
53.8
57.928
53.632
53.256
53.48
53.536
53.816
53.136
53.584
53.664
53.344
53.6
53.92
53.36
53.152
53.488
58.016
53.312
53.552
53.376
53.232
53.728
53.44
53.344
53.376
53.568
53.296
53.152
52.96
53.184
54.096
58.48
53.616
54.512
53.76
53.264
53.76
53.76
53.376
53.568
53.296
53.264
53.328
53.888
53.216
53.296
57.568
53.984
53.504
53.744
53.712
49.008
48.976
48.784
48.816
48.592
48.128
48.272
48.416
48.816
48.56
53.072
48.544
48.304
48.656
48.384
48.192
48.08
48
47.872
49.456
48.672
48.176
49.2
48.064
48.416
52.128
48.64
47.968
47.712
48.48
48.512
48.384
47.904
48.736
48
48.288
47.744
48.128
48.64
48.096
51.552
51.168
48.32
48.416
49.248
48.96
48.064
48.064
48.096
48.448
48
48.352
48.576
48.576
48.16
54.24
58.432
53.888
49.344
48.576
48.672
49.088
48.512
47.968
48.704
48.096
48
48.64
47.776
48.576
53.184
58.464
53.856
53.568
54.048
53.408
53.664
53.184
53.92
53.408
53.28
53.408
53.728
52.992
53.824
54.048
58.208
49.248
48.8
48.864
48.544
48.064
48.032
49.216
49.024
48.352
48.928
48.544
48.672
47.936
53.696
58.976
54.016
53.984
53.792
54.08
53.824
53.6
53.472
53.536
53.408
54.56
53.728
53.024
54.432
53.792
58.976
53.824
54.368
54.176
54.112
54.08
48.96
48.992
48.768
48.864
48.864
48.576
48.128
48.736
48.448
55.552
54.688
54.848
49.28
48.384
48.896
48.256
48.032
48.128
48.192
48.064
47.776
48.032
48.064
48.8
56.16
49.056
48.672
48.256
48.192
47.968
48.672
48.64
53.216
54.016
51.264
52.224
51.392
52.992
52.224
57.792
52.352
53.824
51.264
50.688
51.904
52.544
51.392
54.72
51.584
52.288
51.392
52.544
51.072
53.632
54.4
54.592
54.336
52.992
53.376
52.032
51.584
52.608
51.008
52.992
52.672
51.2
51.456
54.208
51.328
60.672
56
53.312
52.16
51.072
52.672
51.392
52.544
53.696
51.456
51.264
51.392
52.032
51.456
52.736
51.392
59.392
53.76
53.76
53.312
51.328
51.072
54.08
52.992
54.272
53.312
53.312
53.312
53.888
53.568
53.568
55.616
50.88
48.832
48.64
48.32
49.344
49.216
48.96
48.064
48
48.576
48.576
48
48.768
54.08
57.792
53.696
53.632
54.208
53.44
53.312
53.312
53.248
53.44
52.992
53.056
52.928
53.056
53.312
53.44
57.536
53.632
54.016
53.888
54.016
53.696
54.4
53.44
53.632
53.184
53.76
53.44
53.44
53.504
53.376
57.792
53.952
53.632
53.76
53.376
53.184
53.376
53.504
53.376
53.312
53.568
53.312
53.44
52.992
53.184
57.024
53.44
53.44
53.184
53.952
53.376
53.248
53.44
53.376
53.184
53.248
54.016
53.376
53.184
53.76
57.472
53.824
53.312
53.376
53.824
53.376
53.312
53.44
53.312
53.504
53.504
53.312
53.056
53.248
53.44
58.24
53.696
53.056
53.056
53.504
53.312
53.248
53.248
53.696
53.568
53.632
53.504
53.632
53.568
53.568
57.664
54.464
53.376
53.376
53.632
53.504
48.576
48.256
48.32
48.768
48.128
48.768
48.64
48
48.256
53.248
48.512
49.344
48.384
49.152
48.96
48.256
48.32
48.896
48.32
48.32
48.832
48.896
48.32
48
52.544
48.96
48.96
48.768
48.256
48.768
47.936
48.704
48.064
48.32
47.872
49.024
48.64
48.832
49.6
52.864
48.128
48.832
48.192
48.064
48.128
48.576
48.704
48.96
48.704
48.576
48.32
48.768
48.384
48.512
52.224
48.832
49.401
48.54
49.131
48.611
48.24
48.995
49.221
48.806
48.59
48.04
48.766
48.42
49.306
53.064
48.822
48.83
48.264
48.58
48.212
47.964
47.836
48.664
47.988
48.032
48.676
48.128
48.424
48.768
50.724
50.696
52.404
52.88
52.056
70.044
68.968
55.824
52.384
49.28
48.12
47.048
46.752
46.752
50.032
56.112
63.4
53.648
52.24
53.352
51.264
51.864
50.64
52.368
50.568
50.832
51.216
52.352
51.064
52.464
54.288
58.24
51.576
53.64
50.992
52.04
50.592
51.088
50.992
51.952
50.8
51.088
50.8
50.656
52.432
51.52
58.736
51.808
51.184
51.072
52.432
50.384
50.528
50.992
48.912
50.864
51.408
51.904
51.664
50.656
53.056
57.632
50.8
51.04
51.648
50.192
51.616
50.8
50.16
50.624
50.688
51.744
52.016
50.832
50.528
53.744
58.784
51.6
51.968
50.768
51.04
51.392
50.528
50.848
50.736
50.704
50.624
50.8
50.688
51.76
52.928
58.048
50.24
51.136
50.992
52.128
51.984
50.352
51.776
51.04
50.096
48.96
50.368
50.144
50.672
51.68
57.28
51.104
51.52
50.336
51.2
50.912
51.2
51.072
50.656
50.88
50.72
50.784
50.848
51.168
53.216
57.632
51.872
51.36
51.424
50.816
50.528
49.376
50.528
51.36
50.368
50.656
50.848
50.944
51.104
58.848
51.168
51.232
49.184
53.536
55.104
51.104
48.16
47.104
46.944
46.816
46.336
46.432
46.4
47.456
47.776
49.024
60.48
52.992
53.024
49.792
49.248
49.312
52.064
48.192
47.744
47.648
48.736
47.392
47.776
47.232
47.808
53.056
47.776
47.872
48.192
48.736
47.808
46.944
46.272
46.24
46.528
46.496
46.944
46.4
46.304
47.104
52.576
47.712
48.352
47.04
47.904
46.752
46.592
46.4
46.528
46.368
46.336
46.304
46.336
46.432
47.84
52.352
46.72
46.752
47.488
48.16
47.488
47.008
47.36
46.592
46.784
46.496
46.624
46.432
47.136
47.616
51.808
46.976
48.416
50.624
49.728
49.024
49.024
48.48
48.384
48.64
48.928
48.96
48.704
48.608
49.792
50.144
52.352
48.768
49.248
48.64
48.768
48.416
48.608
48.928
48.736
48.672
48.608
48.48
48.352
48.448
48.384
52.992
49.024
48.512
48.64
48.768
48.384
48.512
48.384
48.448
48.64
48.32
48.192
48.256
48.64
48.448
52.608
48.32
48.896
48.704
48.384
48.256
49.344
48.384
48.256
48.256
49.152
48.704
48.192
48.448
48.96
52.544
48.448
48.832
48.384
48.512
48.256
48.192
48
48.32
48.512
48.384
48.704
48.448
48.32
48.576
52.736
48.576
48.768
48.512
48.576
48.448
48.896
48.64
48.448
48.448
48.896
48.448
48.64
48.512
48.576
56.384
48
47.168
46.72
46.656
50.816
47.36
49.728
49.28
48.96
49.024
46.976
46.528
46.4
49.216
53.184
47.36
46.656
46.464
49.024
48.896
46.912
46.4
46.336
48.768
46.912
49.216
46.784
46.4
46.848
54.336
47.68
49.344
46.976
48.832
47.04
46.4
46.464
48.832
46.976
48.896
47.04
48.64
46.848
48.704
51.84
47.04
48.896
46.976
48.704
48.896
49.088
46.72
46.656
48.704
48.96
46.848
46.592
48.576
49.024
51.264
46.72
46.592
46.336
46.528
46.272
49.024
48.896
48.96
46.848
46.592
48.704
46.912
48.768
49.152
51.84
49.024
48.96
48.896
47.168
46.72
46.528
48.576
48.896
48.832
46.912
48.768
46.784
46.592
46.72
54.336
50.24
47.552
46.72
48.832
46.72
46.464
48.768
48.768
47.04
48.768
48.832
46.848
48.768
46.912
51.968
49.152
47.04
46.528
48.768
46.528
48.576
46.912
46.464
48.576
46.656
46.528
48.576
48.768
46.912
51.712
46.528
48.768
49.088
46.784
46.4
46.4
46.464
46.208
48.64
46.656
48.64
46.848
46.464
46.464
51.776
49.152
47.04
49.216
46.784
48.896
46.976
46.4
46.528
46.208
48.704
48.832
48.704
48.832
46.976
51.84
51.392
49.152
46.912
49.792
46.848
46.4
46.336
46.272
49.536
49.28
48.896
48.64
46.912
47.296
54.4
47.488
49.024
47.04
49.009
46.81
49.061
48.966
46.807
48.837
49.063
47.278
46.914
46.732
46.816
52.256
46.808
46.562
46.552
46.512
46.488
46.464
46.352
46.372
46.524
46.436
46.6
46.232
46.48
46.796
52.996
46.704
46.604
46.384
46.468
46.28
46.308
46.236
46.208
46.28
46.176
46.2
46.128
46.2
46.36
52.768
46.528
46.504
46.352
46.336
46.288
46.184
46.368
46.56
46.264
46.168
46.176
46.2
46.36
46.792
53.4
46.792
46.216
46.44
46.4
46.48
46.224
46.12
46.264
46.44
46.168
46.128
45.984
46.048
46.096
47.776
51.888
46.432
46.256
46.144
46.32
46.112
49.408
47.04
49.408
46.896
47.12
46.496
46.72
46.56
46.864
54.464
48.4
48.8
47.632
55.584
49.584
48.336
47.296
47.68
47.632
46.592
46.464
46.688
46.208
46.656
59.568
50.416
48.592
48.24
46.992
46.672
46.8
46.32
46.352
46.304
46.608
46.576
46.544
46.64
46.736
52.64
46.816
46.528
46.704
46.752
46.336
46.624
46.416
46.208
46.192
46.608
46.656
46.336
46.512
46.672
56.864
49.584
46.528
46.272
46.368
46.24
46.304
46.336
46.592
46.144
46.4
46.016
46.24
46.4
47.168
56.672
47.04
46.624
47.008
46.816
46.464
46.272
46.656
46.528
46.368
46.4
46.56
46.4
46.272
46.592
61.984
52.96
49.984
50.912
47.392
49.696
47.136
49.216
49.216
47.168
49.152
46.816
47.136
49.152
49.632
76.64
73.76
52.224
70.464
64.064
54.304
51.168
52.064
50.016
49.312
49.088
50.08
49.6
49.568
49.952
53.248
48.736
49.952
49.6
49.76
49.728
48.64
48.736
49.44
48.864
49.184
49.184
48.64
48.832
49.312
53.632
49.344
48.48
48.576
48.8
48.16
48.256
48.128
49.76
49.472
48.704
48.192
49.184
48.416
49.824
53.312
48.576
48.096
48.064
48.672
48.704
48.8
48.576
48.16
48.8
48.544
48.8
48.832
48.768
48.032
53.92
49.12
49.024
48.544
48.608
48.32
48.8
48.096
48.16
48.192
48.448
47.968
48.416
48.192
49.632
53.056
49.12
48.864
48.512
48.576
48.256
48.8
48.8
48.832
48.32
49.088
48.672
48.256
48.064
48
50.944
51.296
49.152
49.088
48.192
48.128
48.064
48.448
48.832
48.128
48.448
48.384
49.536
48.448
48.128
49.28
53.056
48.896
48
48.384
49.6
48.256
48.96
48.128
48.896
48.192
48.832
48.768
48.512
48.896
48.256
56.576
49.088
49.344
48.512
48.576
49.216
49.088
48.192
48.128
49.216
48.256
48.192
48.192
48.064
48.064
56.128
49.792
48.576
49.28
48.192
48.448
48.96
48.64
48.832
48.448
48.96
48.256
48.256
48.448
49.472
56.64
49.152
48.768
48.384
49.472
48.384
48.384
49.472
48.448
48.32
48.448
48.384
48.064
48.192
48.704
56.32
48.832
64.448
72.448
72.064
50.304
47.36
47.424
47.424
46.976
46.72
46.592
46.848
46.72
76.8
84.032
70.784
69.056
70.976
49.856
47.104
46.784
47.104
46.72
46.464
46.784
46.208
46.336
47.936
76.032
79.744
72.768
68.48
68.672
49.664
47.616
46.912
46.784
46.336
46.4
46.72
46.4
46.784
46.336
75.392
80.512
72.064
68.032
66.88
50.048
46.976
47.168
46.848
46.976
46.784
46.4
46.528
46.528
46.272
75.52
79.104
71.424
68.416
69.568
49.856
47.104
46.656
47.168
46.848
46.528
46.4
46.784
46.464
46.144
75.584
80.512
73.28
69.12
72.832
49.664
46.784
47.104
46.72
49.92
47.168
46.848
46.592
46.528
46.592
73.408
76.416
70.848
72.064
70.528
49.728
47.232
46.592
46.72
46.336
46.592
46.592
46.464
46.528
46.72
75.008
80.128
77.952
71.424
52.288
70.272
50.752
47.232
46.976
46.72
46.784
46.848
46.592
46.912
46.464
75.776
79.488
71.296
71.168
69.184
49.728
47.232
46.528
46.72
46.912
46.336
46.528
46.336
46.528
46.592
75.264
78.784
72.896
71.552
69.632
49.536
47.232
46.656
46.784
47.04
46.72
47.04
46.784
46.784
46.4
74.816
78.208
75.072
66.88
70.976
49.856
47.232
47.04
46.646
46.433
46.923
46.991
46.54
46.628
46.981
53.899
76.329
58.256
74.7
76.5
51.834
72.632
51.414
48.064
47.25
46.736
46.612
46.664
46.5
46.784
75.348
77.568
72.808
75.116
69.156
50.644
47.288
46.816
46.872
46.528
46.344
46.152
46.272
46.352
46.088
74.944
78.392
74.776
70.192
73.016
49.4
47.096
46.456
47.264
46.4
46.72
46.632
46.448
46.592
46.36
74.256
80.192
71.456
73.464
70.408
50.336
47.248
47.024
46.744
46.704
46.376
46.888
46.576
46.312
46.648
73.504
79.248
76
73.488
71.344
50
47.36
50.032
46.976
46.816
46.528
46.528
46.48
46.352
51.472
47.424
57.088
53.44
48.192
47.328
46.512
46.784
46.432
46.24
46.256
50.064
49.856
49.52
47.216
46.64
46.72
56.112
47.728
51.568
47.024
49.568
47.264
46.864
49.6
46.896
49.072
47.088
46.912
46.368
46.32
46.544
60
51.024
47.296
46.864
46.256
51.296
47.088
46.768
48.416
47.168
46.704
46.592
46.72
46.608
46.56
52.336
46.64
46.368
46.608
46.432
46.272
50.368
49.568
47.232
46.624
46.784
46.656
46.464
46.528
46.464
48.704
50.496
46.496
46.816
46.528
49.504
47.072
49.184
46.944
46.368
46.816
46.336
46.272
46.496
46.24
46.624
54.976
48.672
50.624
47.584
49.792
47.008
46.752
46.528
46.624
46.656
46.368
46.208
46.624
46.08
49.888
53.824
50.048
49.824
47.648
46.624
46.656
48.096
50.144
49.472
47.104
46.464
46.464
46.72
46.4
47.04
52.864
46.976
46.528
46.784
46.4
46.4
46.496
46.496
46.592
46.016
46.496
46.56
46.592
46.496
46.912
53.792
46.72
46.528
46.56
46.56
46.368
46.208
46.56
46.208
46.624
46.592
46.208
46.208
46.272
46.752
53.376
47.104
49.632
46.848
46.304
46.56
50.4
46.816
46.784
49.216
46.656
46.688
46.368
46.336
46.368
49.344
51.232
49.632
49.248
46.848
46.688
46.592
46.4
46.4
46.336
49.28
49.28
46.72
46.528
48.96
47.008
51.776
49.664
48.608
48.864
48.672
48.544
48.448
48.256
48.064
48.256
53.024
48.096
47.104
47.04
47.456
52.48
46.976
46.56
46.912
46.976
46.464
46.592
50.368
49.856
49.088
47.04
46.464
46.848
46.592
46.976
56.96
51.968
48.448
70.464
71.616
72.448
49.472
46.912
46.656
46.4
46.592
46.592
46.592
46.464
75.904
57.856
75.264
68.672
70.4
51.072
74.112
62.464
51.968
49.152
48.128
47.296
47.168
46.848
46.336
75.904
78.912
76.16
74.56
69.824
50.176
47.552
47.616
47.232
47.104
46.848
46.72
46.592
46.72
46.656
73.984
82.88
72.32
71.68
70.4
50.88
47.552
47.104
46.72
46.4
46.208
46.592
46.464
46.208
46.528
74.56
79.808
71.616
69.376
70.72
50.24
47.424
46.848
46.464
46.528
46.272
46.592
46.208
46.464
46.144
74.688
57.344
76.48
70.848
64
54.656
51.968
50.304
50.56
49.152
48.64
49.536
48.704
49.6
48.576
48.832
52.416
48.704
50.048
49.152
48.64
49.664
48.448
49.472
48.704
49.536
48.896
49.28
48.896
48.384
48.896
52.48
48.96
48.256
49.088
48.384
48.192
48.896
48.256
49.088
49.024
48.512
48.128
47.936
48.256
48.128
53.632
48.512
48.192
48.832
48.896
48.256
48.192
48.064
48.704
48.768
48.512
48.448
48.384
48.768
48.384
53.12
48.384
48.832
48.96
48.32
48.064
48.128
48.256
47.872
49.344
48.832
48.512
48.832
49.024
48.64
53.12
49.024
49.024
48.32
49.024
48.32
48.256
48.256
48.704
48.64
49.152
48.576
48.576
48.256
48.32
52.544
48.32
47.936
48.896
48.448
49.024
48.832
48.448
48.256
48.832
48.896
48.704
48.192
48.704
48.704
52.096
48.32
48.448
48.448
48.64
48.896
48.32
48.128
48.896
48.64
47.872
47.936
47.872
47.872
48.768
51.968
48.768
48.896
48.704
48.256
48.896
48.128
48.128
48.832
49.088
48.448
48.896
48.32
47.744
47.872
53.632
48.384
48.512
48.704
48.64
49.024
48.768
48.256
48.32
48.64
48.936
48.74
48.448
48.718
48.456
52.084
48.125
49.135
48.911
48.156
48.16
47.788
48.016
48.11
48.856
48.736
48.016
48.04
48.416
48.396
53.808
48.54
48.86
48.52
48.7
48.504
48.548
48.144
47.9
47.872
48.148
47.912
48.872
48.176
49.096
52.488
48.368
47.968
47.936
47.768
47.968
48.504
48.728
47.816
47.88
47.792
48.392
47.92
48.608
48.68
52.608
49.176
48.08
48.6
48.24
48.912
48.456
48
48.976
48.68
48.04
47.96
47.92
47.864
47.792
53.28
48.168
48.816
48.128
48.032
48.768
48.832
48.416
48.048
48.464
48.208
48.224
48.08
48.112
48.656
52.24
48
48.336
47.936
48.08
48.032
47.84
48.672
48.512
48.528
48.352
47.92
48.864
47.936
48.48
52.4
48.48
48.976
48.672
48.72
47.856
48.256
48.448
48.256
48.544
47.984
47.936
48.224
47.968
47.792
52.944
47.952
47.824
49.504
48.4
48.384
48.896
48.608
48.288
49.152
48.576
48.544
48.672
48.896
48.16
52.784
48.176
47.984
48.192
48.688
47.904
47.456
48.704
47.84
48.736
48.128
48.256
48.16
48.608
48.192
53.216
49.024
48.672
48
48.384
48
47.872
47.872
48.736
48.256
47.936
47.84
47.84
47.968
48.672
53.568
48.832
48.384
48.832
48.384
48.224
48.32
48.384
48.384
48.352
47.904
48.576
48.48
48.16
48.992
51.904
48.16
47.872
48.832
48.128
48.032
48.096
48.032
48.064
48.096
48.48
47.744
47.904
48.928
48.384
52.352
48.384
48.8
48.448
48
48.096
47.808
48.48
48.256
48.512
48.256
47.84
48.576
48.32
49.44
54.304
49.312
48.896
49.312
48.64
48
49.152
48.512
48.192
49.152
48.032
48
48.064
47.936
48
53.184
48.736
48.192
47.84
47.968
48.704
48.224
47.936
48.736
48.224
47.84
47.712
47.872
48.416
48.256
52.512
48.768
48.096
48.064
48.288
47.936
48.032
47.904
47.68
47.936
48.48
48.8
48.192
47.936
48.384
51.776
48.512
48.032
47.84
48.704
48.064
48.768
48.224
48.096
48.736
47.872
48.256
48.64
47.68
48.096
52.832
47.872
48.384
47.744
47.968
47.936
47.776
47.872
48.416
48.448
47.936
47.872
47.872
47.744
47.744
52.864
48.64
48.448
48.64
47.936
47.808
47.808
48.384
48.064
48.064
48.64
48.192
48.256
47.936
48
51.264
50.432
48.512
48
48.064
48.576
48
48.256
48.768
48.384
48.448
48.384
48.128
47.872
48.512
48.192
52.8
48.064
48.192
48.576
48.704
48.64
47.808
48.064
47.808
48.704
48.384
48.192
48.512
48
48.384
53.44
48.896
48.576
48.128
48.256
48.064
47.808
48.128
48.384
48.512
47.872
48.512
47.616
47.616
49.088
52.608
48.576
47.744
47.68
47.68
48.448
48.512
48.448
47.872
47.744
47.744
48.576
48.128
47.744
48
52.928
48.128
48.064
47.936
48.384
48.256
47.808
48
47.872
47.744
47.616
47.488
48.192
48.128
47.936
52.928
48.192
48.32
47.936
48.32
47.744
47.68
47.936
47.744
48.128
48.064
48.192
47.68
47.68
48
53.12
48.32
48.064
47.936
48
48.256
48.512
48.256
47.68
47.744
47.552
48.064
48.192
47.936
48.192
52.608
48.192
47.552
47.68
47.424
47.488
47.872
47.808
48.512
47.744
47.872
47.744
48.384
47.68
47.936
52.48
48.32
48.064
